{
  "device_name": "Reflectometer",
  "device_version": "1",
  "device_id": "03:22:01:96",
  "device_battery": 14,
  "device_firmware": 1.18,
  "sample": [
    {
      "protocol_id": "",
      "object_type": "cuvette",
      "calibration": "no",
      "averages": 5,
      "recall": {
        "userdef[20]": 48992.351562,
        "userdef[21]": 48887.910156,
        "userdef[22]": 48864.648438,
        "userdef[23]": 49107.671875,
        "userdef[24]": 50923.378906,
        "userdef[25]": 44331.398438,
        "userdef[26]": 51121.109375,
        "userdef[27]": 64021.738281,
        "userdef[28]": 62253.75,
        "userdef[29]": 64315.761719,
        "userdef[30]": 26380.150391,
        "userdef[31]": 26319,
        "userdef[32]": 26305.820312,
        "userdef[33]": 26370.980469,
        "userdef[34]": 26912.140625,
        "userdef[35]": 21719.330078,
        "userdef[36]": 22289.470703,
        "userdef[37]": 19105.550781,
        "userdef[38]": 19536.869141,
        "userdef[39]": 19224.320312
      },
      "data_raw": [
        41266,
        41292,
        41253,
        41222,
        41200,
        41177,
        41153,
        41136,
        41128,
        41110,
        41093,
        41089,
        41064,
        41055,
        41047,
        41039,
        41022,
        41028,
        41018,
        41000,
        41002,
        40989,
        40986,
        40973,
        40968,
        40968,
        40970,
        40950,
        40950,
        40955,
        40943,
        40943,
        40938,
        40937,
        40917,
        40922,
        40925,
        40912,
        40905,
        40903,
        40904,
        40900,
        40903,
        40892,
        40885,
        40892,
        40889,
        40881,
        40876,
        40882,
        40875,
        40870,
        40874,
        40866,
        40874,
        40874,
        40864,
        40868,
        40855,
        40846,
        40848,
        40847,
        40850,
        40842,
        40846,
        40843,
        40844,
        40842,
        40846,
        40836,
        40833,
        40831,
        40822,
        40821,
        40826,
        40824,
        40820,
        40814,
        40817,
        40817,
        40818,
        40817,
        40819,
        40822,
        40814,
        40818,
        40816,
        40810,
        40815,
        40810,
        40812,
        40803,
        40813,
        40797,
        40804,
        40796,
        40804,
        40798,
        40797,
        40800,
        40797,
        40801,
        40796,
        40796,
        40791,
        40802,
        40798,
        40780,
        40803,
        40783,
        40780,
        40787,
        40782,
        40783,
        40794,
        40784,
        40777,
        40780,
        40785,
        40776,
        40798,
        40796,
        40803,
        40803,
        40804,
        40797,
        40798,
        40793,
        40803,
        40801,
        40791,
        40789,
        40796,
        40793,
        40793,
        40784,
        40796,
        40792,
        40784,
        40794,
        40784,
        40778,
        40782,
        40778,
        40786,
        40784,
        40781,
        40788,
        40774,
        40776,
        40776,
        40785,
        40772,
        40785,
        40781,
        40780,
        40774,
        40774,
        40782,
        40768,
        40764,
        40768,
        40774,
        40779,
        40774,
        40783,
        40774,
        40775,
        40773,
        40769,
        40761,
        40767,
        40769,
        40762,
        40766,
        40762,
        40762,
        40753,
        40767,
        40761,
        41047,
        41048,
        41041,
        41046,
        41042,
        41048,
        41046,
        41044,
        41042,
        41040,
        41039,
        41036,
        41044,
        41040,
        41028,
        41028,
        41030,
        41028,
        41032,
        41036,
        41034,
        41040,
        41034,
        41038,
        41023,
        41030,
        41028,
        41033,
        41034,
        41029,
        41018,
        41026,
        41030,
        41024,
        41033,
        41031,
        41024,
        41025,
        41029,
        41022,
        41027,
        41022,
        41024,
        41026,
        41022,
        41020,
        41020,
        41018,
        41025,
        41026,
        41027,
        41021,
        41024,
        41023,
        41024,
        41026,
        41026,
        41032,
        41033,
        41018,
        43132,
        43142,
        43140,
        43126,
        43120,
        43127,
        43140,
        43130,
        43138,
        43136,
        43143,
        43132,
        43142,
        43136,
        43126,
        43133,
        43137,
        43127,
        43141,
        43127,
        43103,
        43114,
        43128,
        43122,
        43131,
        43130,
        43131,
        43121,
        43131,
        43129,
        43128,
        43126,
        43118,
        43120,
        43126,
        43127,
        43124,
        43104,
        43111,
        43122,
        43112,
        43100,
        43080,
        43110,
        43109,
        43124,
        43117,
        43102,
        43114,
        43111,
        43101,
        43120,
        43102,
        43091,
        43098,
        43110,
        43100,
        43100,
        43107,
        43110,
        39300,
        38999,
        39016,
        39028,
        39053,
        39066,
        39077,
        39081,
        39100,
        39102,
        39088,
        39113,
        39116,
        39122,
        39132,
        39144,
        39150,
        39148,
        39160,
        39158,
        39167,
        39167,
        39178,
        39185,
        39183,
        39193,
        39168,
        39170,
        39183,
        39206,
        39213,
        39211,
        39210,
        39208,
        39212,
        39213,
        39216,
        39225,
        39218,
        39213,
        39228,
        39218,
        39222,
        39210,
        39223,
        39222,
        39228,
        39234,
        39230,
        39247,
        39232,
        39234,
        39237,
        39248,
        39240,
        39242,
        39250,
        39264,
        39263,
        39256,
        46566,
        46430,
        46452,
        46462,
        46469,
        46471,
        46473,
        46492,
        46480,
        46482,
        46496,
        46490,
        46481,
        46513,
        46509,
        46514,
        46505,
        46502,
        46511,
        46537,
        46530,
        46521,
        46520,
        46525,
        46538,
        46534,
        46532,
        46532,
        46539,
        46537,
        46540,
        46533,
        46534,
        46506,
        46524,
        46538,
        46530,
        46537,
        46541,
        46553,
        46553,
        46558,
        46544,
        46545,
        46560,
        46544,
        46545,
        46543,
        46551,
        46546,
        46510,
        46538,
        46545,
        46544,
        46550,
        46552,
        46536,
        46545,
        46541,
        46540,
        0,
        62339,
        62204,
        62173,
        62170,
        62145,
        62146,
        62144,
        62158,
        62178,
        62173,
        62177,
        62178,
        62194,
        62192,
        62223,
        62216,
        62232,
        62210,
        62214,
        62229,
        62234,
        62230,
        62222,
        62229,
        62230,
        62246,
        62238,
        62250,
        62263,
        62248,
        62244,
        62233,
        62267,
        62254,
        62278,
        62274,
        62285,
        62286,
        62249,
        62276,
        62286,
        62304,
        62299,
        62303,
        62283,
        62305,
        62305,
        62278,
        62301,
        62298,
        62302,
        62331,
        62334,
        62317,
        62325,
        62302,
        62320,
        62309,
        62315,
        60395,
        60407,
        60423,
        60417,
        60418,
        60394,
        60414,
        60404,
        60393,
        60395,
        60400,
        60408,
        60394,
        60395,
        60398,
        60397,
        60422,
        60434,
        60420,
        60427,
        60421,
        60401,
        60401,
        60388,
        60395,
        60406,
        60427,
        60402,
        60420,
        60439,
        60395,
        60413,
        60424,
        60414,
        60417,
        60443,
        60407,
        60410,
        60430,
        60436,
        60418,
        60422,
        60409,
        60430,
        60410,
        60427,
        60422,
        60410,
        60418,
        60436,
        60420,
        60448,
        60432,
        60424,
        60444,
        60433,
        60443,
        60428,
        60436,
        60432,
        62500,
        62530,
        62523,
        62491,
        62517,
        62545,
        62538,
        62509,
        62526,
        62529,
        62517,
        62529,
        62540,
        62526,
        62528,
        62527,
        62529,
        62560,
        62519,
        62545,
        62525,
        62540,
        62548,
        62530,
        62509,
        62540,
        62548,
        62524,
        62536,
        62524,
        62548,
        62551,
        62555,
        62539,
        62549,
        62541,
        62533,
        62510,
        62536,
        62551,
        62573,
        62530,
        62540,
        62535,
        62556,
        62557,
        62548,
        62548,
        62568,
        62537,
        62550,
        62577,
        62555,
        62546,
        62571,
        62549,
        62551,
        62589,
        62555,
        62574
      ]
    }
  ]
}